{
  "project_info": {
    "project_number": "595436819132",
    "project_id": "bikehub-76f2b",
    "storage_bucket": "bikehub-76f2b.appspot.com"
  },
  "client": [
    {
      "client_info": {
        "mobilesdk_app_id": "1:595436819132:android:2ed53af2f93f1626c636b9",
        "android_client_info": {
          "package_name": "com.bikehub"
        }
      },
      "oauth_client": [],
      "api_key": [
        {
          "current_key": "AIzaSyBLP3W5unEtuHnALYOiS-1psOceYt8xu2E"
        }
      ],
      "services": {
        "appinvite_service": {
          "other_platform_oauth_client": []
        }
      }
    }
  ],
  "configuration_version": "1"
}